<?xml version="1.0"?>
<VTKFile type="Collection" version="0.1">
  <Collection>
    <DataSet timestep="0" part="0" file="solutions000000.vtu" />
    <DataSet timestep="1" part="0" file="solutions000001.vtu" />
  </Collection>
</VTKFile>
