<?xml version="1.0"?>
<VTKFile type="UnstructuredGrid"  version="0.1"  >
<UnstructuredGrid>
<Piece  NumberOfPoints="698" NumberOfCells="1320">
<Points>
<DataArray  type="Float64"  NumberOfComponents="3"  format="ascii">0 0 0  0.06818181818181818 0 0  0.1363636363636364 0 0  0.2045454545454546 0 0  0.2727272727272727 0 0  0.3409090909090909 0 0  0.4090909090909091 0 0  0.4772727272727273 0 0  0.5454545454545454 0 0  0.6136363636363636 0 0  0.6818181818181818 0 0  0.75 0 0  0.8181818181818182 0 0  0.8863636363636364 0 0  0.9545454545454546 0 0  1.022727272727273 0 0  1.090909090909091 0 0  1.159090909090909 0 0  1.227272727272727 0 0  1.295454545454545 0 0  1.363636363636364 0 0  1.431818181818182 0 0  1.5 0 0  0 0.06666666666666667 0  0.06818181818181818 0.06666666666666667 0  0.1363636363636364 0.06666666666666667 0  0.2045454545454546 0.06666666666666667 0  0.2727272727272727 0.06666666666666667 0  0.3409090909090909 0.06666666666666667 0  0.4090909090909091 0.06666666666666667 0  0.4772727272727273 0.06666666666666667 0  0.5454545454545454 0.06666666666666667 0  0.6136363636363636 0.06666666666666667 0  0.6818181818181818 0.06666666666666667 0  0.75 0.06666666666666667 0  0.8181818181818182 0.06666666666666667 0  0.8863636363636364 0.06666666666666667 0  0.9545454545454546 0.06666666666666667 0  1.022727272727273 0.06666666666666667 0  1.090909090909091 0.06666666666666667 0  1.159090909090909 0.06666666666666667 0  1.227272727272727 0.06666666666666667 0  1.295454545454545 0.06666666666666667 0  1.363636363636364 0.06666666666666667 0  1.431818181818182 0.06666666666666667 0  1.5 0.06666666666666667 0  0 0.1333333333333333 0  0.06818181818181818 0.1333333333333333 0  0.1363636363636364 0.1333333333333333 0  0.2045454545454546 0.1333333333333333 0  0.2727272727272727 0.1333333333333333 0  0.3409090909090909 0.1333333333333333 0  0.4090909090909091 0.1333333333333333 0  0.4772727272727273 0.1333333333333333 0  0.5454545454545454 0.1333333333333333 0  0.6136363636363636 0.1333333333333333 0  0.6818181818181818 0.1333333333333333 0  0.75 0.1333333333333333 0  0.8181818181818182 0.1333333333333333 0  0.8863636363636364 0.1333333333333333 0  0.9545454545454546 0.1333333333333333 0  1.022727272727273 0.1333333333333333 0  1.090909090909091 0.1333333333333333 0  1.159090909090909 0.1333333333333333 0  1.227272727272727 0.1333333333333333 0  1.295454545454545 0.1333333333333333 0  1.363636363636364 0.1333333333333333 0  1.431818181818182 0.1333333333333333 0  1.5 0.1333333333333333 0  0 0.2 0  0.06818181818181818 0.2 0  0.1363636363636364 0.2 0  0.2045454545454546 0.2 0  0.2727272727272727 0.2 0  0.3409090909090909 0.2 0  0.4090909090909091 0.2 0  0.4772727272727273 0.2 0  0.5454545454545454 0.2 0  0.6136363636363636 0.2 0  0.6818181818181818 0.2 0  0.75 0.2 0  0.8181818181818182 0.2 0  0.8863636363636364 0.2 0  0.9545454545454546 0.2 0  1.022727272727273 0.2 0  1.090909090909091 0.2 0  1.159090909090909 0.2 0  1.227272727272727 0.2 0  1.295454545454545 0.2 0  1.363636363636364 0.2 0  1.431818181818182 0.2 0  1.5 0.2 0  0 0.2666666666666667 0  0.06818181818181818 0.2666666666666667 0  0.1363636363636364 0.2666666666666667 0  0.2045454545454546 0.2666666666666667 0  0.2727272727272727 0.2666666666666667 0  0.3409090909090909 0.2666666666666667 0  0.4090909090909091 0.2666666666666667 0  0.4772727272727273 0.2666666666666667 0  0.5454545454545454 0.2666666666666667 0  0.6136363636363636 0.2666666666666667 0  0.6818181818181818 0.2666666666666667 0  0.75 0.2666666666666667 0  0.8181818181818182 0.2666666666666667 0  0.8863636363636364 0.2666666666666667 0  0.9545454545454546 0.2666666666666667 0  1.022727272727273 0.2666666666666667 0  1.090909090909091 0.2666666666666667 0  1.159090909090909 0.2666666666666667 0  1.227272727272727 0.2666666666666667 0  1.295454545454545 0.2666666666666667 0  1.363636363636364 0.2666666666666667 0  1.431818181818182 0.2666666666666667 0  1.5 0.2666666666666667 0  0 0.3333333333333333 0  0.06818181818181818 0.3333333333333333 0  0.1363636363636364 0.3333333333333333 0  0.2045454545454546 0.3333333333333333 0  0.2727272727272727 0.3333333333333333 0  0.3409090909090909 0.3333333333333333 0  0.4090909090909091 0.3333333333333333 0  0.4772727272727273 0.3333333333333333 0  0.5454545454545454 0.3333333333333333 0  0.6136363636363636 0.3333333333333333 0  0.6818181818181818 0.3333333333333333 0  0.75 0.3333333333333333 0  0.8181818181818182 0.3333333333333333 0  0.8863636363636364 0.3333333333333333 0  0.9545454545454546 0.3333333333333333 0  1.022727272727273 0.3333333333333333 0  1.090909090909091 0.3333333333333333 0  1.159090909090909 0.3333333333333333 0  1.227272727272727 0.3333333333333333 0  1.295454545454545 0.3333333333333333 0  1.363636363636364 0.3333333333333333 0  1.431818181818182 0.3333333333333333 0  1.5 0.3333333333333333 0  0 0.4 0  0.06818181818181818 0.4 0  0.1363636363636364 0.4 0  0.2045454545454546 0.4 0  0.2727272727272727 0.4 0  0.3409090909090909 0.4 0  0.4090909090909091 0.4 0  0.4772727272727273 0.4 0  0.5454545454545454 0.4 0  0.6136363636363636 0.4 0  0.6818181818181818 0.4 0  0.75 0.4 0  0.8181818181818182 0.4 0  0.8863636363636364 0.4 0  0.9545454545454546 0.4 0  1.022727272727273 0.4 0  1.090909090909091 0.4 0  1.159090909090909 0.4 0  1.227272727272727 0.4 0  1.295454545454545 0.4 0  1.363636363636364 0.4 0  1.431818181818182 0.4 0  1.5 0.4 0  0 0.4666666666666667 0  0.06818181818181818 0.4666666666666667 0  0.1363636363636364 0.4666666666666667 0  0.2045454545454546 0.4666666666666667 0  0.2727272727272727 0.4666666666666667 0  0.3409090909090909 0.4666666666666667 0  0.4090909090909091 0.4666666666666667 0  0.4772727272727273 0.4666666666666667 0  0.5454545454545454 0.4666666666666667 0  0.6136363636363636 0.4666666666666667 0  0.6818181818181818 0.4666666666666667 0  0.75 0.4666666666666667 0  0.8181818181818182 0.4666666666666667 0  0.8863636363636364 0.4666666666666667 0  0.9545454545454546 0.4666666666666667 0  1.022727272727273 0.4666666666666667 0  1.090909090909091 0.4666666666666667 0  1.159090909090909 0.4666666666666667 0  1.227272727272727 0.4666666666666667 0  1.295454545454545 0.4666666666666667 0  1.363636363636364 0.4666666666666667 0  1.431818181818182 0.4666666666666667 0  1.5 0.4666666666666667 0  0 0.5333333333333333 0  0.06818181818181818 0.5333333333333333 0  0.1363636363636364 0.5333333333333333 0  0.2045454545454546 0.5333333333333333 0  0.2727272727272727 0.5333333333333333 0  0.3409090909090909 0.5333333333333333 0  0.4090909090909091 0.5333333333333333 0  0.4772727272727273 0.5333333333333333 0  0.5454545454545454 0.5333333333333333 0  0.6136363636363636 0.5333333333333333 0  0.6818181818181818 0.5333333333333333 0  0.75 0.5333333333333333 0  0.8181818181818182 0.5333333333333333 0  0.8863636363636364 0.5333333333333333 0  0.9545454545454546 0.5333333333333333 0  1.022727272727273 0.5333333333333333 0  1.090909090909091 0.5333333333333333 0  1.159090909090909 0.5333333333333333 0  1.227272727272727 0.5333333333333333 0  1.295454545454545 0.5333333333333333 0  1.363636363636364 0.5333333333333333 0  1.431818181818182 0.5333333333333333 0  1.5 0.5333333333333333 0  0 0.6 0  0.06818181818181818 0.6 0  0.1363636363636364 0.6 0  0.2045454545454546 0.6 0  0.2727272727272727 0.6 0  0.3409090909090909 0.6 0  0.4090909090909091 0.6 0  0.4772727272727273 0.6 0  0.5454545454545454 0.6 0  0.6136363636363636 0.6 0  0.6818181818181818 0.6 0  0.75 0.6 0  0.8181818181818182 0.6 0  0.8863636363636364 0.6 0  0.9545454545454546 0.6 0  1.022727272727273 0.6 0  1.090909090909091 0.6 0  1.159090909090909 0.6 0  1.227272727272727 0.6 0  1.295454545454545 0.6 0  1.363636363636364 0.6 0  1.431818181818182 0.6 0  1.5 0.6 0  0 0.6666666666666666 0  0.06818181818181818 0.6666666666666666 0  0.1363636363636364 0.6666666666666666 0  0.2045454545454546 0.6666666666666666 0  0.2727272727272727 0.6666666666666666 0  0.3409090909090909 0.6666666666666666 0  0.4090909090909091 0.6666666666666666 0  0.4772727272727273 0.6666666666666666 0  0.5454545454545454 0.6666666666666666 0  0.6136363636363636 0.6666666666666666 0  0.6818181818181818 0.6666666666666666 0  0.75 0.6666666666666666 0  0.8181818181818182 0.6666666666666666 0  0.8863636363636364 0.6666666666666666 0  0.9545454545454546 0.6666666666666666 0  1.022727272727273 0.6666666666666666 0  1.090909090909091 0.6666666666666666 0  1.159090909090909 0.6666666666666666 0  1.227272727272727 0.6666666666666666 0  1.295454545454545 0.6666666666666666 0  1.363636363636364 0.6666666666666666 0  1.431818181818182 0.6666666666666666 0  1.5 0.6666666666666666 0  0 0.7333333333333333 0  0.06818181818181818 0.7333333333333333 0  0.1363636363636364 0.7333333333333333 0  0.2045454545454546 0.7333333333333333 0  0.2727272727272727 0.7333333333333333 0  0.3409090909090909 0.7333333333333333 0  0.4090909090909091 0.7333333333333333 0  0.4772727272727273 0.7333333333333333 0  0.5454545454545454 0.7333333333333333 0  0.6136363636363636 0.7333333333333333 0  0.6818181818181818 0.7333333333333333 0  0.75 0.7333333333333333 0  0.8181818181818182 0.7333333333333333 0  0.8863636363636364 0.7333333333333333 0  0.9545454545454546 0.7333333333333333 0  1.022727272727273 0.7333333333333333 0  1.090909090909091 0.7333333333333333 0  1.159090909090909 0.7333333333333333 0  1.227272727272727 0.7333333333333333 0  1.295454545454545 0.7333333333333333 0  1.363636363636364 0.7333333333333333 0  1.431818181818182 0.7333333333333333 0  1.5 0.7333333333333333 0  0 0.8 0  0.06818181818181818 0.8 0  0.1363636363636364 0.8 0  0.2045454545454546 0.8 0  0.2727272727272727 0.8 0  0.3409090909090909 0.8 0  0.4090909090909091 0.8 0  0.4772727272727273 0.8 0  0.5454545454545454 0.8 0  0.6136363636363636 0.8 0  0.6818181818181818 0.8 0  0.75 0.8 0  0.8181818181818182 0.8 0  0.8863636363636364 0.8 0  0.9545454545454546 0.8 0  1.022727272727273 0.8 0  1.090909090909091 0.8 0  1.159090909090909 0.8 0  1.227272727272727 0.8 0  1.295454545454545 0.8 0  1.363636363636364 0.8 0  1.431818181818182 0.8 0  1.5 0.8 0  0 0.8666666666666667 0  0.06818181818181818 0.8666666666666667 0  0.1363636363636364 0.8666666666666667 0  0.2045454545454546 0.8666666666666667 0  0.2727272727272727 0.8666666666666667 0  0.3409090909090909 0.8666666666666667 0  0.4090909090909091 0.8666666666666667 0  0.4772727272727273 0.8666666666666667 0  0.5454545454545454 0.8666666666666667 0  0.6136363636363636 0.8666666666666667 0  0.6818181818181818 0.8666666666666667 0  0.75 0.8666666666666667 0  0.8181818181818182 0.8666666666666667 0  0.8863636363636364 0.8666666666666667 0  0.9545454545454546 0.8666666666666667 0  1.022727272727273 0.8666666666666667 0  1.090909090909091 0.8666666666666667 0  1.159090909090909 0.8666666666666667 0  1.227272727272727 0.8666666666666667 0  1.295454545454545 0.8666666666666667 0  1.363636363636364 0.8666666666666667 0  1.431818181818182 0.8666666666666667 0  1.5 0.8666666666666667 0  0 0.9333333333333333 0  0.06818181818181818 0.9333333333333333 0  0.1363636363636364 0.9333333333333333 0  0.2045454545454546 0.9333333333333333 0  0.2727272727272727 0.9333333333333333 0  0.3409090909090909 0.9333333333333333 0  0.4090909090909091 0.9333333333333333 0  0.4772727272727273 0.9333333333333333 0  0.5454545454545454 0.9333333333333333 0  0.6136363636363636 0.9333333333333333 0  0.6818181818181818 0.9333333333333333 0  0.75 0.9333333333333333 0  0.8181818181818182 0.9333333333333333 0  0.8863636363636364 0.9333333333333333 0  0.9545454545454546 0.9333333333333333 0  1.022727272727273 0.9333333333333333 0  1.090909090909091 0.9333333333333333 0  1.159090909090909 0.9333333333333333 0  1.227272727272727 0.9333333333333333 0  1.295454545454545 0.9333333333333333 0  1.363636363636364 0.9333333333333333 0  1.431818181818182 0.9333333333333333 0  1.5 0.9333333333333333 0  0 1 0  0.06818181818181818 1 0  0.1363636363636364 1 0  0.2045454545454546 1 0  0.2727272727272727 1 0  0.3409090909090909 1 0  0.4090909090909091 1 0  0.4772727272727273 1 0  0.5454545454545454 1 0  0.6136363636363636 1 0  0.6818181818181818 1 0  0.75 1 0  0.8181818181818182 1 0  0.8863636363636364 1 0  0.9545454545454546 1 0  1.022727272727273 1 0  1.090909090909091 1 0  1.159090909090909 1 0  1.227272727272727 1 0  1.295454545454545 1 0  1.363636363636364 1 0  1.431818181818182 1 0  1.5 1 0  0.03409090909090909 0.03333333333333333 0  0.1022727272727273 0.03333333333333333 0  0.1704545454545454 0.03333333333333333 0  0.2386363636363636 0.03333333333333333 0  0.3068181818181818 0.03333333333333333 0  0.375 0.03333333333333333 0  0.4431818181818182 0.03333333333333333 0  0.5113636363636364 0.03333333333333333 0  0.5795454545454546 0.03333333333333333 0  0.6477272727272727 0.03333333333333333 0  0.7159090909090909 0.03333333333333333 0  0.7840909090909091 0.03333333333333333 0  0.8522727272727273 0.03333333333333333 0  0.9204545454545454 0.03333333333333333 0  0.9886363636363636 0.03333333333333333 0  1.056818181818182 0.03333333333333333 0  1.125 0.03333333333333333 0  1.193181818181818 0.03333333333333333 0  1.261363636363636 0.03333333333333333 0  1.329545454545455 0.03333333333333333 0  1.397727272727273 0.03333333333333333 0  1.465909090909091 0.03333333333333333 0  0.03409090909090909 0.1 0  0.1022727272727273 0.1 0  0.1704545454545454 0.1 0  0.2386363636363636 0.1 0  0.3068181818181818 0.1 0  0.375 0.1 0  0.4431818181818182 0.1 0  0.5113636363636364 0.1 0  0.5795454545454546 0.1 0  0.6477272727272727 0.1 0  0.7159090909090909 0.1 0  0.7840909090909091 0.1 0  0.8522727272727273 0.1 0  0.9204545454545454 0.1 0  0.9886363636363636 0.1 0  1.056818181818182 0.1 0  1.125 0.1 0  1.193181818181818 0.1 0  1.261363636363636 0.1 0  1.329545454545455 0.1 0  1.397727272727273 0.1 0  1.465909090909091 0.1 0  0.03409090909090909 0.1666666666666667 0  0.1022727272727273 0.1666666666666667 0  0.1704545454545454 0.1666666666666667 0  0.2386363636363636 0.1666666666666667 0  0.3068181818181818 0.1666666666666667 0  0.375 0.1666666666666667 0  0.4431818181818182 0.1666666666666667 0  0.5113636363636364 0.1666666666666667 0  0.5795454545454546 0.1666666666666667 0  0.6477272727272727 0.1666666666666667 0  0.7159090909090909 0.1666666666666667 0  0.7840909090909091 0.1666666666666667 0  0.8522727272727273 0.1666666666666667 0  0.9204545454545454 0.1666666666666667 0  0.9886363636363636 0.1666666666666667 0  1.056818181818182 0.1666666666666667 0  1.125 0.1666666666666667 0  1.193181818181818 0.1666666666666667 0  1.261363636363636 0.1666666666666667 0  1.329545454545455 0.1666666666666667 0  1.397727272727273 0.1666666666666667 0  1.465909090909091 0.1666666666666667 0  0.03409090909090909 0.2333333333333333 0  0.1022727272727273 0.2333333333333333 0  0.1704545454545454 0.2333333333333333 0  0.2386363636363636 0.2333333333333333 0  0.3068181818181818 0.2333333333333333 0  0.375 0.2333333333333333 0  0.4431818181818182 0.2333333333333333 0  0.5113636363636364 0.2333333333333333 0  0.5795454545454546 0.2333333333333333 0  0.6477272727272727 0.2333333333333333 0  0.7159090909090909 0.2333333333333333 0  0.7840909090909091 0.2333333333333333 0  0.8522727272727273 0.2333333333333333 0  0.9204545454545454 0.2333333333333333 0  0.9886363636363636 0.2333333333333333 0  1.056818181818182 0.2333333333333333 0  1.125 0.2333333333333333 0  1.193181818181818 0.2333333333333333 0  1.261363636363636 0.2333333333333333 0  1.329545454545455 0.2333333333333333 0  1.397727272727273 0.2333333333333333 0  1.465909090909091 0.2333333333333333 0  0.03409090909090909 0.3 0  0.1022727272727273 0.3 0  0.1704545454545454 0.3 0  0.2386363636363636 0.3 0  0.3068181818181818 0.3 0  0.375 0.3 0  0.4431818181818182 0.3 0  0.5113636363636364 0.3 0  0.5795454545454546 0.3 0  0.6477272727272727 0.3 0  0.7159090909090909 0.3 0  0.7840909090909091 0.3 0  0.8522727272727273 0.3 0  0.9204545454545454 0.3 0  0.9886363636363636 0.3 0  1.056818181818182 0.3 0  1.125 0.3 0  1.193181818181818 0.3 0  1.261363636363636 0.3 0  1.329545454545455 0.3 0  1.397727272727273 0.3 0  1.465909090909091 0.3 0  0.03409090909090909 0.3666666666666666 0  0.1022727272727273 0.3666666666666666 0  0.1704545454545454 0.3666666666666666 0  0.2386363636363636 0.3666666666666666 0  0.3068181818181818 0.3666666666666666 0  0.375 0.3666666666666666 0  0.4431818181818182 0.3666666666666666 0  0.5113636363636364 0.3666666666666666 0  0.5795454545454546 0.3666666666666666 0  0.6477272727272727 0.3666666666666666 0  0.7159090909090909 0.3666666666666666 0  0.7840909090909091 0.3666666666666666 0  0.8522727272727273 0.3666666666666666 0  0.9204545454545454 0.3666666666666666 0  0.9886363636363636 0.3666666666666666 0  1.056818181818182 0.3666666666666666 0  1.125 0.3666666666666666 0  1.193181818181818 0.3666666666666666 0  1.261363636363636 0.3666666666666666 0  1.329545454545455 0.3666666666666666 0  1.397727272727273 0.3666666666666666 0  1.465909090909091 0.3666666666666666 0  0.03409090909090909 0.4333333333333333 0  0.1022727272727273 0.4333333333333333 0  0.1704545454545454 0.4333333333333333 0  0.2386363636363636 0.4333333333333333 0  0.3068181818181818 0.4333333333333333 0  0.375 0.4333333333333333 0  0.4431818181818182 0.4333333333333333 0  0.5113636363636364 0.4333333333333333 0  0.5795454545454546 0.4333333333333333 0  0.6477272727272727 0.4333333333333333 0  0.7159090909090909 0.4333333333333333 0  0.7840909090909091 0.4333333333333333 0  0.8522727272727273 0.4333333333333333 0  0.9204545454545454 0.4333333333333333 0  0.9886363636363636 0.4333333333333333 0  1.056818181818182 0.4333333333333333 0  1.125 0.4333333333333333 0  1.193181818181818 0.4333333333333333 0  1.261363636363636 0.4333333333333333 0  1.329545454545455 0.4333333333333333 0  1.397727272727273 0.4333333333333333 0  1.465909090909091 0.4333333333333333 0  0.03409090909090909 0.5 0  0.1022727272727273 0.5 0  0.1704545454545454 0.5 0  0.2386363636363636 0.5 0  0.3068181818181818 0.5 0  0.375 0.5 0  0.4431818181818182 0.5 0  0.5113636363636364 0.5 0  0.5795454545454546 0.5 0  0.6477272727272727 0.5 0  0.7159090909090909 0.5 0  0.7840909090909091 0.5 0  0.8522727272727273 0.5 0  0.9204545454545454 0.5 0  0.9886363636363636 0.5 0  1.056818181818182 0.5 0  1.125 0.5 0  1.193181818181818 0.5 0  1.261363636363636 0.5 0  1.329545454545455 0.5 0  1.397727272727273 0.5 0  1.465909090909091 0.5 0  0.03409090909090909 0.5666666666666667 0  0.1022727272727273 0.5666666666666667 0  0.1704545454545454 0.5666666666666667 0  0.2386363636363636 0.5666666666666667 0  0.3068181818181818 0.5666666666666667 0  0.375 0.5666666666666667 0  0.4431818181818182 0.5666666666666667 0  0.5113636363636364 0.5666666666666667 0  0.5795454545454546 0.5666666666666667 0  0.6477272727272727 0.5666666666666667 0  0.7159090909090909 0.5666666666666667 0  0.7840909090909091 0.5666666666666667 0  0.8522727272727273 0.5666666666666667 0  0.9204545454545454 0.5666666666666667 0  0.9886363636363636 0.5666666666666667 0  1.056818181818182 0.5666666666666667 0  1.125 0.5666666666666667 0  1.193181818181818 0.5666666666666667 0  1.261363636363636 0.5666666666666667 0  1.329545454545455 0.5666666666666667 0  1.397727272727273 0.5666666666666667 0  1.465909090909091 0.5666666666666667 0  0.03409090909090909 0.6333333333333333 0  0.1022727272727273 0.6333333333333333 0  0.1704545454545454 0.6333333333333333 0  0.2386363636363636 0.6333333333333333 0  0.3068181818181818 0.6333333333333333 0  0.375 0.6333333333333333 0  0.4431818181818182 0.6333333333333333 0  0.5113636363636364 0.6333333333333333 0  0.5795454545454546 0.6333333333333333 0  0.6477272727272727 0.6333333333333333 0  0.7159090909090909 0.6333333333333333 0  0.7840909090909091 0.6333333333333333 0  0.8522727272727273 0.6333333333333333 0  0.9204545454545454 0.6333333333333333 0  0.9886363636363636 0.6333333333333333 0  1.056818181818182 0.6333333333333333 0  1.125 0.6333333333333333 0  1.193181818181818 0.6333333333333333 0  1.261363636363636 0.6333333333333333 0  1.329545454545455 0.6333333333333333 0  1.397727272727273 0.6333333333333333 0  1.465909090909091 0.6333333333333333 0  0.03409090909090909 0.7 0  0.1022727272727273 0.7 0  0.1704545454545454 0.7 0  0.2386363636363636 0.7 0  0.3068181818181818 0.7 0  0.375 0.7 0  0.4431818181818182 0.7 0  0.5113636363636364 0.7 0  0.5795454545454546 0.7 0  0.6477272727272727 0.7 0  0.7159090909090909 0.7 0  0.7840909090909091 0.7 0  0.8522727272727273 0.7 0  0.9204545454545454 0.7 0  0.9886363636363636 0.7 0  1.056818181818182 0.7 0  1.125 0.7 0  1.193181818181818 0.7 0  1.261363636363636 0.7 0  1.329545454545455 0.7 0  1.397727272727273 0.7 0  1.465909090909091 0.7 0  0.03409090909090909 0.7666666666666667 0  0.1022727272727273 0.7666666666666667 0  0.1704545454545454 0.7666666666666667 0  0.2386363636363636 0.7666666666666667 0  0.3068181818181818 0.7666666666666667 0  0.375 0.7666666666666667 0  0.4431818181818182 0.7666666666666667 0  0.5113636363636364 0.7666666666666667 0  0.5795454545454546 0.7666666666666667 0  0.6477272727272727 0.7666666666666667 0  0.7159090909090909 0.7666666666666667 0  0.7840909090909091 0.7666666666666667 0  0.8522727272727273 0.7666666666666667 0  0.9204545454545454 0.7666666666666667 0  0.9886363636363636 0.7666666666666667 0  1.056818181818182 0.7666666666666667 0  1.125 0.7666666666666667 0  1.193181818181818 0.7666666666666667 0  1.261363636363636 0.7666666666666667 0  1.329545454545455 0.7666666666666667 0  1.397727272727273 0.7666666666666667 0  1.465909090909091 0.7666666666666667 0  0.03409090909090909 0.8333333333333334 0  0.1022727272727273 0.8333333333333334 0  0.1704545454545454 0.8333333333333334 0  0.2386363636363636 0.8333333333333334 0  0.3068181818181818 0.8333333333333334 0  0.375 0.8333333333333334 0  0.4431818181818182 0.8333333333333334 0  0.5113636363636364 0.8333333333333334 0  0.5795454545454546 0.8333333333333334 0  0.6477272727272727 0.8333333333333334 0  0.7159090909090909 0.8333333333333334 0  0.7840909090909091 0.8333333333333334 0  0.8522727272727273 0.8333333333333334 0  0.9204545454545454 0.8333333333333334 0  0.9886363636363636 0.8333333333333334 0  1.056818181818182 0.8333333333333334 0  1.125 0.8333333333333334 0  1.193181818181818 0.8333333333333334 0  1.261363636363636 0.8333333333333334 0  1.329545454545455 0.8333333333333334 0  1.397727272727273 0.8333333333333334 0  1.465909090909091 0.8333333333333334 0  0.03409090909090909 0.9 0  0.1022727272727273 0.9 0  0.1704545454545454 0.9 0  0.2386363636363636 0.9 0  0.3068181818181818 0.9 0  0.375 0.9 0  0.4431818181818182 0.9 0  0.5113636363636364 0.9 0  0.5795454545454546 0.9 0  0.6477272727272727 0.9 0  0.7159090909090909 0.9 0  0.7840909090909091 0.9 0  0.8522727272727273 0.9 0  0.9204545454545454 0.9 0  0.9886363636363636 0.9 0  1.056818181818182 0.9 0  1.125 0.9 0  1.193181818181818 0.9 0  1.261363636363636 0.9 0  1.329545454545455 0.9 0  1.397727272727273 0.9 0  1.465909090909091 0.9 0  0.03409090909090909 0.9666666666666667 0  0.1022727272727273 0.9666666666666667 0  0.1704545454545454 0.9666666666666667 0  0.2386363636363636 0.9666666666666667 0  0.3068181818181818 0.9666666666666667 0  0.375 0.9666666666666667 0  0.4431818181818182 0.9666666666666667 0  0.5113636363636364 0.9666666666666667 0  0.5795454545454546 0.9666666666666667 0  0.6477272727272727 0.9666666666666667 0  0.7159090909090909 0.9666666666666667 0  0.7840909090909091 0.9666666666666667 0  0.8522727272727273 0.9666666666666667 0  0.9204545454545454 0.9666666666666667 0  0.9886363636363636 0.9666666666666667 0  1.056818181818182 0.9666666666666667 0  1.125 0.9666666666666667 0  1.193181818181818 0.9666666666666667 0  1.261363636363636 0.9666666666666667 0  1.329545454545455 0.9666666666666667 0  1.397727272727273 0.9666666666666667 0  1.465909090909091 0.9666666666666667 0  </DataArray>
</Points>
<Cells>
<DataArray  type="UInt32"  Name="connectivity"  format="ascii">0 1 368  0 23 368  1 24 368  23 24 368  1 2 369  1 24 369  2 25 369  24 25 369  2 3 370  2 25 370  3 26 370  25 26 370  3 4 371  3 26 371  4 27 371  26 27 371  4 5 372  4 27 372  5 28 372  27 28 372  5 6 373  5 28 373  6 29 373  28 29 373  6 7 374  6 29 374  7 30 374  29 30 374  7 8 375  7 30 375  8 31 375  30 31 375  8 9 376  8 31 376  9 32 376  31 32 376  9 10 377  9 32 377  10 33 377  32 33 377  10 11 378  10 33 378  11 34 378  33 34 378  11 12 379  11 34 379  12 35 379  34 35 379  12 13 380  12 35 380  13 36 380  35 36 380  13 14 381  13 36 381  14 37 381  36 37 381  14 15 382  14 37 382  15 38 382  37 38 382  15 16 383  15 38 383  16 39 383  38 39 383  16 17 384  16 39 384  17 40 384  39 40 384  17 18 385  17 40 385  18 41 385  40 41 385  18 19 386  18 41 386  19 42 386  41 42 386  19 20 387  19 42 387  20 43 387  42 43 387  20 21 388  20 43 388  21 44 388  43 44 388  21 22 389  21 44 389  22 45 389  44 45 389  23 24 390  23 46 390  24 47 390  46 47 390  24 25 391  24 47 391  25 48 391  47 48 391  25 26 392  25 48 392  26 49 392  48 49 392  26 27 393  26 49 393  27 50 393  49 50 393  27 28 394  27 50 394  28 51 394  50 51 394  28 29 395  28 51 395  29 52 395  51 52 395  29 30 396  29 52 396  30 53 396  52 53 396  30 31 397  30 53 397  31 54 397  53 54 397  31 32 398  31 54 398  32 55 398  54 55 398  32 33 399  32 55 399  33 56 399  55 56 399  33 34 400  33 56 400  34 57 400  56 57 400  34 35 401  34 57 401  35 58 401  57 58 401  35 36 402  35 58 402  36 59 402  58 59 402  36 37 403  36 59 403  37 60 403  59 60 403  37 38 404  37 60 404  38 61 404  60 61 404  38 39 405  38 61 405  39 62 405  61 62 405  39 40 406  39 62 406  40 63 406  62 63 406  40 41 407  40 63 407  41 64 407  63 64 407  41 42 408  41 64 408  42 65 408  64 65 408  42 43 409  42 65 409  43 66 409  65 66 409  43 44 410  43 66 410  44 67 410  66 67 410  44 45 411  44 67 411  45 68 411  67 68 411  46 47 412  46 69 412  47 70 412  69 70 412  47 48 413  47 70 413  48 71 413  70 71 413  48 49 414  48 71 414  49 72 414  71 72 414  49 50 415  49 72 415  50 73 415  72 73 415  50 51 416  50 73 416  51 74 416  73 74 416  51 52 417  51 74 417  52 75 417  74 75 417  52 53 418  52 75 418  53 76 418  75 76 418  53 54 419  53 76 419  54 77 419  76 77 419  54 55 420  54 77 420  55 78 420  77 78 420  55 56 421  55 78 421  56 79 421  78 79 421  56 57 422  56 79 422  57 80 422  79 80 422  57 58 423  57 80 423  58 81 423  80 81 423  58 59 424  58 81 424  59 82 424  81 82 424  59 60 425  59 82 425  60 83 425  82 83 425  60 61 426  60 83 426  61 84 426  83 84 426  61 62 427  61 84 427  62 85 427  84 85 427  62 63 428  62 85 428  63 86 428  85 86 428  63 64 429  63 86 429  64 87 429  86 87 429  64 65 430  64 87 430  65 88 430  87 88 430  65 66 431  65 88 431  66 89 431  88 89 431  66 67 432  66 89 432  67 90 432  89 90 432  67 68 433  67 90 433  68 91 433  90 91 433  69 70 434  69 92 434  70 93 434  92 93 434  70 71 435  70 93 435  71 94 435  93 94 435  71 72 436  71 94 436  72 95 436  94 95 436  72 73 437  72 95 437  73 96 437  95 96 437  73 74 438  73 96 438  74 97 438  96 97 438  74 75 439  74 97 439  75 98 439  97 98 439  75 76 440  75 98 440  76 99 440  98 99 440  76 77 441  76 99 441  77 100 441  99 100 441  77 78 442  77 100 442  78 101 442  100 101 442  78 79 443  78 101 443  79 102 443  101 102 443  79 80 444  79 102 444  80 103 444  102 103 444  80 81 445  80 103 445  81 104 445  103 104 445  81 82 446  81 104 446  82 105 446  104 105 446  82 83 447  82 105 447  83 106 447  105 106 447  83 84 448  83 106 448  84 107 448  106 107 448  84 85 449  84 107 449  85 108 449  107 108 449  85 86 450  85 108 450  86 109 450  108 109 450  86 87 451  86 109 451  87 110 451  109 110 451  87 88 452  87 110 452  88 111 452  110 111 452  88 89 453  88 111 453  89 112 453  111 112 453  89 90 454  89 112 454  90 113 454  112 113 454  90 91 455  90 113 455  91 114 455  113 114 455  92 93 456  92 115 456  93 116 456  115 116 456  93 94 457  93 116 457  94 117 457  116 117 457  94 95 458  94 117 458  95 118 458  117 118 458  95 96 459  95 118 459  96 119 459  118 119 459  96 97 460  96 119 460  97 120 460  119 120 460  97 98 461  97 120 461  98 121 461  120 121 461  98 99 462  98 121 462  99 122 462  121 122 462  99 100 463  99 122 463  100 123 463  122 123 463  100 101 464  100 123 464  101 124 464  123 124 464  101 102 465  101 124 465  102 125 465  124 125 465  102 103 466  102 125 466  103 126 466  125 126 466  103 104 467  103 126 467  104 127 467  126 127 467  104 105 468  104 127 468  105 128 468  127 128 468  105 106 469  105 128 469  106 129 469  128 129 469  106 107 470  106 129 470  107 130 470  129 130 470  107 108 471  107 130 471  108 131 471  130 131 471  108 109 472  108 131 472  109 132 472  131 132 472  109 110 473  109 132 473  110 133 473  132 133 473  110 111 474  110 133 474  111 134 474  133 134 474  111 112 475  111 134 475  112 135 475  134 135 475  112 113 476  112 135 476  113 136 476  135 136 476  113 114 477  113 136 477  114 137 477  136 137 477  115 116 478  115 138 478  116 139 478  138 139 478  116 117 479  116 139 479  117 140 479  139 140 479  117 118 480  117 140 480  118 141 480  140 141 480  118 119 481  118 141 481  119 142 481  141 142 481  119 120 482  119 142 482  120 143 482  142 143 482  120 121 483  120 143 483  121 144 483  143 144 483  121 122 484  121 144 484  122 145 484  144 145 484  122 123 485  122 145 485  123 146 485  145 146 485  123 124 486  123 146 486  124 147 486  146 147 486  124 125 487  124 147 487  125 148 487  147 148 487  125 126 488  125 148 488  126 149 488  148 149 488  126 127 489  126 149 489  127 150 489  149 150 489  127 128 490  127 150 490  128 151 490  150 151 490  128 129 491  128 151 491  129 152 491  151 152 491  129 130 492  129 152 492  130 153 492  152 153 492  130 131 493  130 153 493  131 154 493  153 154 493  131 132 494  131 154 494  132 155 494  154 155 494  132 133 495  132 155 495  133 156 495  155 156 495  133 134 496  133 156 496  134 157 496  156 157 496  134 135 497  134 157 497  135 158 497  157 158 497  135 136 498  135 158 498  136 159 498  158 159 498  136 137 499  136 159 499  137 160 499  159 160 499  138 139 500  138 161 500  139 162 500  161 162 500  139 140 501  139 162 501  140 163 501  162 163 501  140 141 502  140 163 502  141 164 502  163 164 502  141 142 503  141 164 503  142 165 503  164 165 503  142 143 504  142 165 504  143 166 504  165 166 504  143 144 505  143 166 505  144 167 505  166 167 505  144 145 506  144 167 506  145 168 506  167 168 506  145 146 507  145 168 507  146 169 507  168 169 507  146 147 508  146 169 508  147 170 508  169 170 508  147 148 509  147 170 509  148 171 509  170 171 509  148 149 510  148 171 510  149 172 510  171 172 510  149 150 511  149 172 511  150 173 511  172 173 511  150 151 512  150 173 512  151 174 512  173 174 512  151 152 513  151 174 513  152 175 513  174 175 513  152 153 514  152 175 514  153 176 514  175 176 514  153 154 515  153 176 515  154 177 515  176 177 515  154 155 516  154 177 516  155 178 516  177 178 516  155 156 517  155 178 517  156 179 517  178 179 517  156 157 518  156 179 518  157 180 518  179 180 518  157 158 519  157 180 519  158 181 519  180 181 519  158 159 520  158 181 520  159 182 520  181 182 520  159 160 521  159 182 521  160 183 521  182 183 521  161 162 522  161 184 522  162 185 522  184 185 522  162 163 523  162 185 523  163 186 523  185 186 523  163 164 524  163 186 524  164 187 524  186 187 524  164 165 525  164 187 525  165 188 525  187 188 525  165 166 526  165 188 526  166 189 526  188 189 526  166 167 527  166 189 527  167 190 527  189 190 527  167 168 528  167 190 528  168 191 528  190 191 528  168 169 529  168 191 529  169 192 529  191 192 529  169 170 530  169 192 530  170 193 530  192 193 530  170 171 531  170 193 531  171 194 531  193 194 531  171 172 532  171 194 532  172 195 532  194 195 532  172 173 533  172 195 533  173 196 533  195 196 533  173 174 534  173 196 534  174 197 534  196 197 534  174 175 535  174 197 535  175 198 535  197 198 535  175 176 536  175 198 536  176 199 536  198 199 536  176 177 537  176 199 537  177 200 537  199 200 537  177 178 538  177 200 538  178 201 538  200 201 538  178 179 539  178 201 539  179 202 539  201 202 539  179 180 540  179 202 540  180 203 540  202 203 540  180 181 541  180 203 541  181 204 541  203 204 541  181 182 542  181 204 542  182 205 542  204 205 542  182 183 543  182 205 543  183 206 543  205 206 543  184 185 544  184 207 544  185 208 544  207 208 544  185 186 545  185 208 545  186 209 545  208 209 545  186 187 546  186 209 546  187 210 546  209 210 546  187 188 547  187 210 547  188 211 547  210 211 547  188 189 548  188 211 548  189 212 548  211 212 548  189 190 549  189 212 549  190 213 549  212 213 549  190 191 550  190 213 550  191 214 550  213 214 550  191 192 551  191 214 551  192 215 551  214 215 551  192 193 552  192 215 552  193 216 552  215 216 552  193 194 553  193 216 553  194 217 553  216 217 553  194 195 554  194 217 554  195 218 554  217 218 554  195 196 555  195 218 555  196 219 555  218 219 555  196 197 556  196 219 556  197 220 556  219 220 556  197 198 557  197 220 557  198 221 557  220 221 557  198 199 558  198 221 558  199 222 558  221 222 558  199 200 559  199 222 559  200 223 559  222 223 559  200 201 560  200 223 560  201 224 560  223 224 560  201 202 561  201 224 561  202 225 561  224 225 561  202 203 562  202 225 562  203 226 562  225 226 562  203 204 563  203 226 563  204 227 563  226 227 563  204 205 564  204 227 564  205 228 564  227 228 564  205 206 565  205 228 565  206 229 565  228 229 565  207 208 566  207 230 566  208 231 566  230 231 566  208 209 567  208 231 567  209 232 567  231 232 567  209 210 568  209 232 568  210 233 568  232 233 568  210 211 569  210 233 569  211 234 569  233 234 569  211 212 570  211 234 570  212 235 570  234 235 570  212 213 571  212 235 571  213 236 571  235 236 571  213 214 572  213 236 572  214 237 572  236 237 572  214 215 573  214 237 573  215 238 573  237 238 573  215 216 574  215 238 574  216 239 574  238 239 574  216 217 575  216 239 575  217 240 575  239 240 575  217 218 576  217 240 576  218 241 576  240 241 576  218 219 577  218 241 577  219 242 577  241 242 577  219 220 578  219 242 578  220 243 578  242 243 578  220 221 579  220 243 579  221 244 579  243 244 579  221 222 580  221 244 580  222 245 580  244 245 580  222 223 581  222 245 581  223 246 581  245 246 581  223 224 582  223 246 582  224 247 582  246 247 582  224 225 583  224 247 583  225 248 583  247 248 583  225 226 584  225 248 584  226 249 584  248 249 584  226 227 585  226 249 585  227 250 585  249 250 585  227 228 586  227 250 586  228 251 586  250 251 586  228 229 587  228 251 587  229 252 587  251 252 587  230 231 588  230 253 588  231 254 588  253 254 588  231 232 589  231 254 589  232 255 589  254 255 589  232 233 590  232 255 590  233 256 590  255 256 590  233 234 591  233 256 591  234 257 591  256 257 591  234 235 592  234 257 592  235 258 592  257 258 592  235 236 593  235 258 593  236 259 593  258 259 593  236 237 594  236 259 594  237 260 594  259 260 594  237 238 595  237 260 595  238 261 595  260 261 595  238 239 596  238 261 596  239 262 596  261 262 596  239 240 597  239 262 597  240 263 597  262 263 597  240 241 598  240 263 598  241 264 598  263 264 598  241 242 599  241 264 599  242 265 599  264 265 599  242 243 600  242 265 600  243 266 600  265 266 600  243 244 601  243 266 601  244 267 601  266 267 601  244 245 602  244 267 602  245 268 602  267 268 602  245 246 603  245 268 603  246 269 603  268 269 603  246 247 604  246 269 604  247 270 604  269 270 604  247 248 605  247 270 605  248 271 605  270 271 605  248 249 606  248 271 606  249 272 606  271 272 606  249 250 607  249 272 607  250 273 607  272 273 607  250 251 608  250 273 608  251 274 608  273 274 608  251 252 609  251 274 609  252 275 609  274 275 609  253 254 610  253 276 610  254 277 610  276 277 610  254 255 611  254 277 611  255 278 611  277 278 611  255 256 612  255 278 612  256 279 612  278 279 612  256 257 613  256 279 613  257 280 613  279 280 613  257 258 614  257 280 614  258 281 614  280 281 614  258 259 615  258 281 615  259 282 615  281 282 615  259 260 616  259 282 616  260 283 616  282 283 616  260 261 617  260 283 617  261 284 617  283 284 617  261 262 618  261 284 618  262 285 618  284 285 618  262 263 619  262 285 619  263 286 619  285 286 619  263 264 620  263 286 620  264 287 620  286 287 620  264 265 621  264 287 621  265 288 621  287 288 621  265 266 622  265 288 622  266 289 622  288 289 622  266 267 623  266 289 623  267 290 623  289 290 623  267 268 624  267 290 624  268 291 624  290 291 624  268 269 625  268 291 625  269 292 625  291 292 625  269 270 626  269 292 626  270 293 626  292 293 626  270 271 627  270 293 627  271 294 627  293 294 627  271 272 628  271 294 628  272 295 628  294 295 628  272 273 629  272 295 629  273 296 629  295 296 629  273 274 630  273 296 630  274 297 630  296 297 630  274 275 631  274 297 631  275 298 631  297 298 631  276 277 632  276 299 632  277 300 632  299 300 632  277 278 633  277 300 633  278 301 633  300 301 633  278 279 634  278 301 634  279 302 634  301 302 634  279 280 635  279 302 635  280 303 635  302 303 635  280 281 636  280 303 636  281 304 636  303 304 636  281 282 637  281 304 637  282 305 637  304 305 637  282 283 638  282 305 638  283 306 638  305 306 638  283 284 639  283 306 639  284 307 639  306 307 639  284 285 640  284 307 640  285 308 640  307 308 640  285 286 641  285 308 641  286 309 641  308 309 641  286 287 642  286 309 642  287 310 642  309 310 642  287 288 643  287 310 643  288 311 643  310 311 643  288 289 644  288 311 644  289 312 644  311 312 644  289 290 645  289 312 645  290 313 645  312 313 645  290 291 646  290 313 646  291 314 646  313 314 646  291 292 647  291 314 647  292 315 647  314 315 647  292 293 648  292 315 648  293 316 648  315 316 648  293 294 649  293 316 649  294 317 649  316 317 649  294 295 650  294 317 650  295 318 650  317 318 650  295 296 651  295 318 651  296 319 651  318 319 651  296 297 652  296 319 652  297 320 652  319 320 652  297 298 653  297 320 653  298 321 653  320 321 653  299 300 654  299 322 654  300 323 654  322 323 654  300 301 655  300 323 655  301 324 655  323 324 655  301 302 656  301 324 656  302 325 656  324 325 656  302 303 657  302 325 657  303 326 657  325 326 657  303 304 658  303 326 658  304 327 658  326 327 658  304 305 659  304 327 659  305 328 659  327 328 659  305 306 660  305 328 660  306 329 660  328 329 660  306 307 661  306 329 661  307 330 661  329 330 661  307 308 662  307 330 662  308 331 662  330 331 662  308 309 663  308 331 663  309 332 663  331 332 663  309 310 664  309 332 664  310 333 664  332 333 664  310 311 665  310 333 665  311 334 665  333 334 665  311 312 666  311 334 666  312 335 666  334 335 666  312 313 667  312 335 667  313 336 667  335 336 667  313 314 668  313 336 668  314 337 668  336 337 668  314 315 669  314 337 669  315 338 669  337 338 669  315 316 670  315 338 670  316 339 670  338 339 670  316 317 671  316 339 671  317 340 671  339 340 671  317 318 672  317 340 672  318 341 672  340 341 672  318 319 673  318 341 673  319 342 673  341 342 673  319 320 674  319 342 674  320 343 674  342 343 674  320 321 675  320 343 675  321 344 675  343 344 675  322 323 676  322 345 676  323 346 676  345 346 676  323 324 677  323 346 677  324 347 677  346 347 677  324 325 678  324 347 678  325 348 678  347 348 678  325 326 679  325 348 679  326 349 679  348 349 679  326 327 680  326 349 680  327 350 680  349 350 680  327 328 681  327 350 681  328 351 681  350 351 681  328 329 682  328 351 682  329 352 682  351 352 682  329 330 683  329 352 683  330 353 683  352 353 683  330 331 684  330 353 684  331 354 684  353 354 684  331 332 685  331 354 685  332 355 685  354 355 685  332 333 686  332 355 686  333 356 686  355 356 686  333 334 687  333 356 687  334 357 687  356 357 687  334 335 688  334 357 688  335 358 688  357 358 688  335 336 689  335 358 689  336 359 689  358 359 689  336 337 690  336 359 690  337 360 690  359 360 690  337 338 691  337 360 691  338 361 691  360 361 691  338 339 692  338 361 692  339 362 692  361 362 692  339 340 693  339 362 693  340 363 693  362 363 693  340 341 694  340 363 694  341 364 694  363 364 694  341 342 695  341 364 695  342 365 695  364 365 695  342 343 696  342 365 696  343 366 696  365 366 696  343 344 697  343 366 697  344 367 697  366 367 697  </DataArray>
<DataArray  type="UInt32"  Name="offsets"  format="ascii">3 6 9 12 15 18 21 24 27 30 33 36 39 42 45 48 51 54 57 60 63 66 69 72 75 78 81 84 87 90 93 96 99 102 105 108 111 114 117 120 123 126 129 132 135 138 141 144 147 150 153 156 159 162 165 168 171 174 177 180 183 186 189 192 195 198 201 204 207 210 213 216 219 222 225 228 231 234 237 240 243 246 249 252 255 258 261 264 267 270 273 276 279 282 285 288 291 294 297 300 303 306 309 312 315 318 321 324 327 330 333 336 339 342 345 348 351 354 357 360 363 366 369 372 375 378 381 384 387 390 393 396 399 402 405 408 411 414 417 420 423 426 429 432 435 438 441 444 447 450 453 456 459 462 465 468 471 474 477 480 483 486 489 492 495 498 501 504 507 510 513 516 519 522 525 528 531 534 537 540 543 546 549 552 555 558 561 564 567 570 573 576 579 582 585 588 591 594 597 600 603 606 609 612 615 618 621 624 627 630 633 636 639 642 645 648 651 654 657 660 663 666 669 672 675 678 681 684 687 690 693 696 699 702 705 708 711 714 717 720 723 726 729 732 735 738 741 744 747 750 753 756 759 762 765 768 771 774 777 780 783 786 789 792 795 798 801 804 807 810 813 816 819 822 825 828 831 834 837 840 843 846 849 852 855 858 861 864 867 870 873 876 879 882 885 888 891 894 897 900 903 906 909 912 915 918 921 924 927 930 933 936 939 942 945 948 951 954 957 960 963 966 969 972 975 978 981 984 987 990 993 996 999 1002 1005 1008 1011 1014 1017 1020 1023 1026 1029 1032 1035 1038 1041 1044 1047 1050 1053 1056 1059 1062 1065 1068 1071 1074 1077 1080 1083 1086 1089 1092 1095 1098 1101 1104 1107 1110 1113 1116 1119 1122 1125 1128 1131 1134 1137 1140 1143 1146 1149 1152 1155 1158 1161 1164 1167 1170 1173 1176 1179 1182 1185 1188 1191 1194 1197 1200 1203 1206 1209 1212 1215 1218 1221 1224 1227 1230 1233 1236 1239 1242 1245 1248 1251 1254 1257 1260 1263 1266 1269 1272 1275 1278 1281 1284 1287 1290 1293 1296 1299 1302 1305 1308 1311 1314 1317 1320 1323 1326 1329 1332 1335 1338 1341 1344 1347 1350 1353 1356 1359 1362 1365 1368 1371 1374 1377 1380 1383 1386 1389 1392 1395 1398 1401 1404 1407 1410 1413 1416 1419 1422 1425 1428 1431 1434 1437 1440 1443 1446 1449 1452 1455 1458 1461 1464 1467 1470 1473 1476 1479 1482 1485 1488 1491 1494 1497 1500 1503 1506 1509 1512 1515 1518 1521 1524 1527 1530 1533 1536 1539 1542 1545 1548 1551 1554 1557 1560 1563 1566 1569 1572 1575 1578 1581 1584 1587 1590 1593 1596 1599 1602 1605 1608 1611 1614 1617 1620 1623 1626 1629 1632 1635 1638 1641 1644 1647 1650 1653 1656 1659 1662 1665 1668 1671 1674 1677 1680 1683 1686 1689 1692 1695 1698 1701 1704 1707 1710 1713 1716 1719 1722 1725 1728 1731 1734 1737 1740 1743 1746 1749 1752 1755 1758 1761 1764 1767 1770 1773 1776 1779 1782 1785 1788 1791 1794 1797 1800 1803 1806 1809 1812 1815 1818 1821 1824 1827 1830 1833 1836 1839 1842 1845 1848 1851 1854 1857 1860 1863 1866 1869 1872 1875 1878 1881 1884 1887 1890 1893 1896 1899 1902 1905 1908 1911 1914 1917 1920 1923 1926 1929 1932 1935 1938 1941 1944 1947 1950 1953 1956 1959 1962 1965 1968 1971 1974 1977 1980 1983 1986 1989 1992 1995 1998 2001 2004 2007 2010 2013 2016 2019 2022 2025 2028 2031 2034 2037 2040 2043 2046 2049 2052 2055 2058 2061 2064 2067 2070 2073 2076 2079 2082 2085 2088 2091 2094 2097 2100 2103 2106 2109 2112 2115 2118 2121 2124 2127 2130 2133 2136 2139 2142 2145 2148 2151 2154 2157 2160 2163 2166 2169 2172 2175 2178 2181 2184 2187 2190 2193 2196 2199 2202 2205 2208 2211 2214 2217 2220 2223 2226 2229 2232 2235 2238 2241 2244 2247 2250 2253 2256 2259 2262 2265 2268 2271 2274 2277 2280 2283 2286 2289 2292 2295 2298 2301 2304 2307 2310 2313 2316 2319 2322 2325 2328 2331 2334 2337 2340 2343 2346 2349 2352 2355 2358 2361 2364 2367 2370 2373 2376 2379 2382 2385 2388 2391 2394 2397 2400 2403 2406 2409 2412 2415 2418 2421 2424 2427 2430 2433 2436 2439 2442 2445 2448 2451 2454 2457 2460 2463 2466 2469 2472 2475 2478 2481 2484 2487 2490 2493 2496 2499 2502 2505 2508 2511 2514 2517 2520 2523 2526 2529 2532 2535 2538 2541 2544 2547 2550 2553 2556 2559 2562 2565 2568 2571 2574 2577 2580 2583 2586 2589 2592 2595 2598 2601 2604 2607 2610 2613 2616 2619 2622 2625 2628 2631 2634 2637 2640 2643 2646 2649 2652 2655 2658 2661 2664 2667 2670 2673 2676 2679 2682 2685 2688 2691 2694 2697 2700 2703 2706 2709 2712 2715 2718 2721 2724 2727 2730 2733 2736 2739 2742 2745 2748 2751 2754 2757 2760 2763 2766 2769 2772 2775 2778 2781 2784 2787 2790 2793 2796 2799 2802 2805 2808 2811 2814 2817 2820 2823 2826 2829 2832 2835 2838 2841 2844 2847 2850 2853 2856 2859 2862 2865 2868 2871 2874 2877 2880 2883 2886 2889 2892 2895 2898 2901 2904 2907 2910 2913 2916 2919 2922 2925 2928 2931 2934 2937 2940 2943 2946 2949 2952 2955 2958 2961 2964 2967 2970 2973 2976 2979 2982 2985 2988 2991 2994 2997 3000 3003 3006 3009 3012 3015 3018 3021 3024 3027 3030 3033 3036 3039 3042 3045 3048 3051 3054 3057 3060 3063 3066 3069 3072 3075 3078 3081 3084 3087 3090 3093 3096 3099 3102 3105 3108 3111 3114 3117 3120 3123 3126 3129 3132 3135 3138 3141 3144 3147 3150 3153 3156 3159 3162 3165 3168 3171 3174 3177 3180 3183 3186 3189 3192 3195 3198 3201 3204 3207 3210 3213 3216 3219 3222 3225 3228 3231 3234 3237 3240 3243 3246 3249 3252 3255 3258 3261 3264 3267 3270 3273 3276 3279 3282 3285 3288 3291 3294 3297 3300 3303 3306 3309 3312 3315 3318 3321 3324 3327 3330 3333 3336 3339 3342 3345 3348 3351 3354 3357 3360 3363 3366 3369 3372 3375 3378 3381 3384 3387 3390 3393 3396 3399 3402 3405 3408 3411 3414 3417 3420 3423 3426 3429 3432 3435 3438 3441 3444 3447 3450 3453 3456 3459 3462 3465 3468 3471 3474 3477 3480 3483 3486 3489 3492 3495 3498 3501 3504 3507 3510 3513 3516 3519 3522 3525 3528 3531 3534 3537 3540 3543 3546 3549 3552 3555 3558 3561 3564 3567 3570 3573 3576 3579 3582 3585 3588 3591 3594 3597 3600 3603 3606 3609 3612 3615 3618 3621 3624 3627 3630 3633 3636 3639 3642 3645 3648 3651 3654 3657 3660 3663 3666 3669 3672 3675 3678 3681 3684 3687 3690 3693 3696 3699 3702 3705 3708 3711 3714 3717 3720 3723 3726 3729 3732 3735 3738 3741 3744 3747 3750 3753 3756 3759 3762 3765 3768 3771 3774 3777 3780 3783 3786 3789 3792 3795 3798 3801 3804 3807 3810 3813 3816 3819 3822 3825 3828 3831 3834 3837 3840 3843 3846 3849 3852 3855 3858 3861 3864 3867 3870 3873 3876 3879 3882 3885 3888 3891 3894 3897 3900 3903 3906 3909 3912 3915 3918 3921 3924 3927 3930 3933 3936 3939 3942 3945 3948 3951 3954 3957 3960 </DataArray>
<DataArray  type="UInt8"  Name="types"  format="ascii">5 5 5 5 5 5 5 5 5 5 5 5 5 5 5 5 5 5 5 5 5 5 5 5 5 5 5 5 5 5 5 5 5 5 5 5 5 5 5 5 5 5 5 5 5 5 5 5 5 5 5 5 5 5 5 5 5 5 5 5 5 5 5 5 5 5 5 5 5 5 5 5 5 5 5 5 5 5 5 5 5 5 5 5 5 5 5 5 5 5 5 5 5 5 5 5 5 5 5 5 5 5 5 5 5 5 5 5 5 5 5 5 5 5 5 5 5 5 5 5 5 5 5 5 5 5 5 5 5 5 5 5 5 5 5 5 5 5 5 5 5 5 5 5 5 5 5 5 5 5 5 5 5 5 5 5 5 5 5 5 5 5 5 5 5 5 5 5 5 5 5 5 5 5 5 5 5 5 5 5 5 5 5 5 5 5 5 5 5 5 5 5 5 5 5 5 5 5 5 5 5 5 5 5 5 5 5 5 5 5 5 5 5 5 5 5 5 5 5 5 5 5 5 5 5 5 5 5 5 5 5 5 5 5 5 5 5 5 5 5 5 5 5 5 5 5 5 5 5 5 5 5 5 5 5 5 5 5 5 5 5 5 5 5 5 5 5 5 5 5 5 5 5 5 5 5 5 5 5 5 5 5 5 5 5 5 5 5 5 5 5 5 5 5 5 5 5 5 5 5 5 5 5 5 5 5 5 5 5 5 5 5 5 5 5 5 5 5 5 5 5 5 5 5 5 5 5 5 5 5 5 5 5 5 5 5 5 5 5 5 5 5 5 5 5 5 5 5 5 5 5 5 5 5 5 5 5 5 5 5 5 5 5 5 5 5 5 5 5 5 5 5 5 5 5 5 5 5 5 5 5 5 5 5 5 5 5 5 5 5 5 5 5 5 5 5 5 5 5 5 5 5 5 5 5 5 5 5 5 5 5 5 5 5 5 5 5 5 5 5 5 5 5 5 5 5 5 5 5 5 5 5 5 5 5 5 5 5 5 5 5 5 5 5 5 5 5 5 5 5 5 5 5 5 5 5 5 5 5 5 5 5 5 5 5 5 5 5 5 5 5 5 5 5 5 5 5 5 5 5 5 5 5 5 5 5 5 5 5 5 5 5 5 5 5 5 5 5 5 5 5 5 5 5 5 5 5 5 5 5 5 5 5 5 5 5 5 5 5 5 5 5 5 5 5 5 5 5 5 5 5 5 5 5 5 5 5 5 5 5 5 5 5 5 5 5 5 5 5 5 5 5 5 5 5 5 5 5 5 5 5 5 5 5 5 5 5 5 5 5 5 5 5 5 5 5 5 5 5 5 5 5 5 5 5 5 5 5 5 5 5 5 5 5 5 5 5 5 5 5 5 5 5 5 5 5 5 5 5 5 5 5 5 5 5 5 5 5 5 5 5 5 5 5 5 5 5 5 5 5 5 5 5 5 5 5 5 5 5 5 5 5 5 5 5 5 5 5 5 5 5 5 5 5 5 5 5 5 5 5 5 5 5 5 5 5 5 5 5 5 5 5 5 5 5 5 5 5 5 5 5 5 5 5 5 5 5 5 5 5 5 5 5 5 5 5 5 5 5 5 5 5 5 5 5 5 5 5 5 5 5 5 5 5 5 5 5 5 5 5 5 5 5 5 5 5 5 5 5 5 5 5 5 5 5 5 5 5 5 5 5 5 5 5 5 5 5 5 5 5 5 5 5 5 5 5 5 5 5 5 5 5 5 5 5 5 5 5 5 5 5 5 5 5 5 5 5 5 5 5 5 5 5 5 5 5 5 5 5 5 5 5 5 5 5 5 5 5 5 5 5 5 5 5 5 5 5 5 5 5 5 5 5 5 5 5 5 5 5 5 5 5 5 5 5 5 5 5 5 5 5 5 5 5 5 5 5 5 5 5 5 5 5 5 5 5 5 5 5 5 5 5 5 5 5 5 5 5 5 5 5 5 5 5 5 5 5 5 5 5 5 5 5 5 5 5 5 5 5 5 5 5 5 5 5 5 5 5 5 5 5 5 5 5 5 5 5 5 5 5 5 5 5 5 5 5 5 5 5 5 5 5 5 5 5 5 5 5 5 5 5 5 5 5 5 5 5 5 5 5 5 5 5 5 5 5 5 5 5 5 5 5 5 5 5 5 5 5 5 5 5 5 5 5 5 5 5 5 5 5 5 5 5 5 5 5 5 5 5 5 5 5 5 5 5 5 5 5 5 5 5 5 5 5 5 5 5 5 5 5 5 5 5 5 5 5 5 5 5 5 5 5 5 5 5 5 5 5 5 5 5 5 5 5 5 5 5 5 5 5 5 5 5 5 5 5 5 5 5 5 5 5 5 5 5 5 5 5 5 5 5 5 5 5 5 5 5 5 5 5 5 5 5 5 5 5 5 5 5 5 5 5 5 5 5 5 5 5 5 5 5 5 5 5 5 5 5 5 5 5 5 5 5 5 5 5 5 5 5 5 5 5 5 5 5 5 5 5 5 5 5 5 5 5 5 5 5 5 5 5 5 5 5 5 5 5 5 5 5 5 5 5 5 5 5 5 5 5 5 5 5 5 5 5 5 5 5 5 5 5 5 5 5 5 5 5 5 5 5 5 5 5 5 5 5 5 5 5 5 5 5 5 5 5 5 5 5 5 5 5 5 5 5 5 5 5 5 5 5 5 5 5 5 5 5 5 5 5 5 5 5 5 5 5 5 5 5 5 5 5 5 5 5 5 5 5 5 5 5 5 5 5 5 5 5 5 5 5 5 5 5 5 5 5 5 5 5 5 5 5 5 5 5 5 5 5 5 5 5 5 5 5 5 5 5 5 5 5 5 5 5 5 5 5 5 5 5 5 5 5 5 5 5 5 5 5 5 5 5 5 5 5 5 5 5 5 5 5 5 5 5 5 5 5 5 5 5 5 5 5 5 5 5 5 5 5 5 5 5 5 5 5 5 5 5 5 5 5 5 5 5 5 5 5 5 5 5 5 5 5 </DataArray>
</Cells>
<PointData  Scalars="Control"> 
<DataArray  type="Float64"  Name="Control"  format="ascii">0.0000000000000000e+00  0.0000000000000000e+00  0.0000000000000000e+00  0.0000000000000000e+00  0.0000000000000000e+00  0.0000000000000000e+00  0.0000000000000000e+00  0.0000000000000000e+00  0.0000000000000000e+00  0.0000000000000000e+00  0.0000000000000000e+00  0.0000000000000000e+00  0.0000000000000000e+00  0.0000000000000000e+00  0.0000000000000000e+00  0.0000000000000000e+00  0.0000000000000000e+00  0.0000000000000000e+00  0.0000000000000000e+00  0.0000000000000000e+00  0.0000000000000000e+00  0.0000000000000000e+00  0.0000000000000000e+00  0.0000000000000000e+00  0.0000000000000000e+00  0.0000000000000000e+00  0.0000000000000000e+00  0.0000000000000000e+00  0.0000000000000000e+00  0.0000000000000000e+00  0.0000000000000000e+00  0.0000000000000000e+00  0.0000000000000000e+00  0.0000000000000000e+00  0.0000000000000000e+00  0.0000000000000000e+00  0.0000000000000000e+00  0.0000000000000000e+00  0.0000000000000000e+00  0.0000000000000000e+00  0.0000000000000000e+00  0.0000000000000000e+00  0.0000000000000000e+00  0.0000000000000000e+00  0.0000000000000000e+00  0.0000000000000000e+00  0.0000000000000000e+00  0.0000000000000000e+00  0.0000000000000000e+00  0.0000000000000000e+00  0.0000000000000000e+00  0.0000000000000000e+00  0.0000000000000000e+00  0.0000000000000000e+00  0.0000000000000000e+00  0.0000000000000000e+00  0.0000000000000000e+00  0.0000000000000000e+00  0.0000000000000000e+00  0.0000000000000000e+00  0.0000000000000000e+00  0.0000000000000000e+00  0.0000000000000000e+00  0.0000000000000000e+00  0.0000000000000000e+00  0.0000000000000000e+00  0.0000000000000000e+00  0.0000000000000000e+00  0.0000000000000000e+00  1.0000000000000000e+00  1.0000000000000000e+00  1.0000000000000000e+00  1.0000000000000000e+00  1.0000000000000000e+00  1.0000000000000000e+00  1.0000000000000000e+00  1.0000000000000000e+00  1.0000000000000000e+00  1.0000000000000000e+00  1.0000000000000000e+00  1.0000000000000000e+00  1.0000000000000000e+00  1.0000000000000000e+00  1.0000000000000000e+00  1.0000000000000000e+00  1.0000000000000000e+00  1.0000000000000000e+00  1.0000000000000000e+00  1.0000000000000000e+00  1.0000000000000000e+00  1.0000000000000000e+00  1.0000000000000000e+00  1.0000000000000000e+00  1.0000000000000000e+00  1.0000000000000000e+00  1.0000000000000000e+00  1.0000000000000000e+00  1.0000000000000000e+00  9.9999999999999989e-01  1.0000000000000000e+00  1.0000000000000000e+00  1.0000000000000000e+00  1.0000000000000000e+00  1.0000000000000000e+00  1.0000000000000000e+00  1.0000000000000000e+00  1.0000000000000000e+00  1.0000000000000000e+00  1.0000000000000000e+00  1.0000000000000000e+00  1.0000000000000000e+00  1.0000000000000000e+00  1.0000000000000000e+00  1.0000000000000000e+00  1.0000000000000000e+00  3.3822369003240799e-01  1.5432121012101016e-01  0.0000000000000000e+00  0.0000000000000000e+00  0.0000000000000000e+00  0.0000000000000000e+00  0.0000000000000000e+00  0.0000000000000000e+00  3.7527050763919440e-01  1.0000000000000000e+00  1.0000000000000000e+00  1.0000000000000000e+00  1.0000000000000000e+00  1.0000000000000000e+00  1.0000000000000000e+00  3.7087287858251761e-01  0.0000000000000000e+00  0.0000000000000000e+00  0.0000000000000000e+00  0.0000000000000000e+00  0.0000000000000000e+00  1.5870503263509075e-01  3.4074091761298531e-01  0.0000000000000000e+00  0.0000000000000000e+00  0.0000000000000000e+00  0.0000000000000000e+00  0.0000000000000000e+00  0.0000000000000000e+00  0.0000000000000000e+00  0.0000000000000000e+00  0.0000000000000000e+00  0.0000000000000000e+00  0.0000000000000000e+00  0.0000000000000000e+00  0.0000000000000000e+00  0.0000000000000000e+00  0.0000000000000000e+00  0.0000000000000000e+00  0.0000000000000000e+00  0.0000000000000000e+00  0.0000000000000000e+00  0.0000000000000000e+00  0.0000000000000000e+00  0.0000000000000000e+00  0.0000000000000000e+00  0.0000000000000000e+00  0.0000000000000000e+00  0.0000000000000000e+00  0.0000000000000000e+00  0.0000000000000000e+00  0.0000000000000000e+00  0.0000000000000000e+00  0.0000000000000000e+00  0.0000000000000000e+00  0.0000000000000000e+00  0.0000000000000000e+00  0.0000000000000000e+00  0.0000000000000000e+00  0.0000000000000000e+00  0.0000000000000000e+00  0.0000000000000000e+00  0.0000000000000000e+00  0.0000000000000000e+00  0.0000000000000000e+00  0.0000000000000000e+00  0.0000000000000000e+00  0.0000000000000000e+00  0.0000000000000000e+00  0.0000000000000000e+00  0.0000000000000000e+00  0.0000000000000000e+00  0.0000000000000000e+00  0.0000000000000000e+00  0.0000000000000000e+00  0.0000000000000000e+00  0.0000000000000000e+00  0.0000000000000000e+00  0.0000000000000000e+00  0.0000000000000000e+00  0.0000000000000000e+00  0.0000000000000000e+00  0.0000000000000000e+00  0.0000000000000000e+00  0.0000000000000000e+00  0.0000000000000000e+00  0.0000000000000000e+00  0.0000000000000000e+00  0.0000000000000000e+00  0.0000000000000000e+00  0.0000000000000000e+00  0.0000000000000000e+00  0.0000000000000000e+00  0.0000000000000000e+00  0.0000000000000000e+00  0.0000000000000000e+00  0.0000000000000000e+00  0.0000000000000000e+00  0.0000000000000000e+00  0.0000000000000000e+00  0.0000000000000000e+00  0.0000000000000000e+00  0.0000000000000000e+00  0.0000000000000000e+00  0.0000000000000000e+00  0.0000000000000000e+00  0.0000000000000000e+00  0.0000000000000000e+00  0.0000000000000000e+00  0.0000000000000000e+00  0.0000000000000000e+00  0.0000000000000000e+00  0.0000000000000000e+00  0.0000000000000000e+00  0.0000000000000000e+00  3.3531294571709924e-01  1.4820814419461489e-01  0.0000000000000000e+00  0.0000000000000000e+00  0.0000000000000000e+00  0.0000000000000000e+00  4.3933456595816817e-01  1.0000000000000000e+00  1.0000000000000000e+00  1.0000000000000000e+00  1.0000000000000000e+00  1.0000000000000000e+00  1.0000000000000000e+00  1.0000000000000000e+00  1.0000000000000000e+00  1.0000000000000000e+00  1.0000000000000000e+00  1.0000000000000000e+00  1.0000000000000000e+00  1.0000000000000000e+00  1.0000000000000000e+00  9.5434014013674895e-01  3.4569623579607367e-01  1.0000000000000000e+00  1.0000000000000000e+00  1.0000000000000000e+00  1.0000000000000000e+00  1.0000000000000000e+00  1.0000000000000000e+00  1.0000000000000000e+00  1.0000000000000000e+00  1.0000000000000000e+00  1.0000000000000000e+00  1.0000000000000000e+00  1.0000000000000000e+00  1.0000000000000000e+00  1.0000000000000000e+00  1.0000000000000000e+00  1.0000000000000000e+00  1.0000000000000000e+00  1.0000000000000000e+00  1.0000000000000000e+00  1.0000000000000000e+00  1.0000000000000000e+00  1.0000000000000000e+00  1.0000000000000000e+00  1.0000000000000000e+00  1.0000000000000000e+00  1.0000000000000000e+00  1.0000000000000000e+00  1.0000000000000000e+00  1.0000000000000000e+00  1.0000000000000000e+00  1.0000000000000000e+00  1.0000000000000000e+00  1.0000000000000000e+00  1.0000000000000000e+00  1.0000000000000000e+00  1.0000000000000000e+00  1.0000000000000000e+00  1.0000000000000000e+00  1.0000000000000000e+00  1.0000000000000000e+00  1.0000000000000000e+00  1.0000000000000000e+00  1.0000000000000000e+00  1.0000000000000000e+00  1.0000000000000000e+00  1.0000000000000000e+00  0.0000000000000000e+00  0.0000000000000000e+00  0.0000000000000000e+00  0.0000000000000000e+00  0.0000000000000000e+00  0.0000000000000000e+00  0.0000000000000000e+00  0.0000000000000000e+00  0.0000000000000000e+00  0.0000000000000000e+00  0.0000000000000000e+00  0.0000000000000000e+00  0.0000000000000000e+00  0.0000000000000000e+00  0.0000000000000000e+00  0.0000000000000000e+00  0.0000000000000000e+00  0.0000000000000000e+00  0.0000000000000000e+00  0.0000000000000000e+00  0.0000000000000000e+00  0.0000000000000000e+00  0.0000000000000000e+00  0.0000000000000000e+00  0.0000000000000000e+00  0.0000000000000000e+00  0.0000000000000000e+00  0.0000000000000000e+00  0.0000000000000000e+00  0.0000000000000000e+00  0.0000000000000000e+00  0.0000000000000000e+00  0.0000000000000000e+00  0.0000000000000000e+00  0.0000000000000000e+00  0.0000000000000000e+00  0.0000000000000000e+00  0.0000000000000000e+00  0.0000000000000000e+00  0.0000000000000000e+00  0.0000000000000000e+00  0.0000000000000000e+00  0.0000000000000000e+00  0.0000000000000000e+00  0.0000000000000000e+00  0.0000000000000000e+00  0.0000000000000000e+00  0.0000000000000000e+00  0.0000000000000000e+00  0.0000000000000000e+00  0.0000000000000000e+00  0.0000000000000000e+00  0.0000000000000000e+00  0.0000000000000000e+00  0.0000000000000000e+00  0.0000000000000000e+00  0.0000000000000000e+00  0.0000000000000000e+00  0.0000000000000000e+00  0.0000000000000000e+00  0.0000000000000000e+00  0.0000000000000000e+00  0.0000000000000000e+00  0.0000000000000000e+00  0.0000000000000000e+00  0.0000000000000000e+00  0.0000000000000000e+00  0.0000000000000000e+00  0.0000000000000000e+00  0.0000000000000000e+00  0.0000000000000000e+00  0.0000000000000000e+00  0.0000000000000000e+00  0.0000000000000000e+00  0.0000000000000000e+00  0.0000000000000000e+00  0.0000000000000000e+00  0.0000000000000000e+00  0.0000000000000000e+00  0.0000000000000000e+00  0.0000000000000000e+00  0.0000000000000000e+00  0.0000000000000000e+00  0.0000000000000000e+00  0.0000000000000000e+00  0.0000000000000000e+00  0.0000000000000000e+00  0.0000000000000000e+00  0.0000000000000000e+00  0.0000000000000000e+00  0.0000000000000000e+00  0.0000000000000000e+00  0.0000000000000000e+00  0.0000000000000000e+00  0.0000000000000000e+00  0.0000000000000000e+00  0.0000000000000000e+00  0.0000000000000000e+00  0.0000000000000000e+00  0.0000000000000000e+00  0.0000000000000000e+00  0.0000000000000000e+00  0.0000000000000000e+00  0.0000000000000000e+00  0.0000000000000000e+00  0.0000000000000000e+00  0.0000000000000000e+00  0.0000000000000000e+00  0.0000000000000000e+00  0.0000000000000000e+00  0.0000000000000000e+00  0.0000000000000000e+00  0.0000000000000000e+00  1.8552925821065197e-01  9.3344442091442525e-01  1.0000000000000000e+00  1.0000000000000000e+00  1.0000000000000000e+00  1.0000000000000000e+00  1.0000000000000000e+00  9.9202274271872348e-01  3.6587966013780993e-01  0.0000000000000000e+00  0.0000000000000000e+00  0.0000000000000000e+00  0.0000000000000000e+00  0.0000000000000000e+00  3.5890459609338743e-01  9.8137573363573172e-01  1.0000000000000000e+00  1.0000000000000000e+00  1.0000000000000000e+00  1.0000000000000000e+00  9.2348103993669217e-01  1.8296181032415773e-01  1.0000000000000000e+00  1.0000000000000000e+00  1.0000000000000000e+00  1.0000000000000000e+00  1.0000000000000000e+00  1.0000000000000000e+00  1.0000000000000000e+00  1.0000000000000000e+00  1.0000000000000000e+00  1.0000000000000000e+00  1.0000000000000000e+00  1.0000000000000000e+00  1.0000000000000000e+00  9.9999999999999989e-01  1.0000000000000000e+00  1.0000000000000000e+00  1.0000000000000000e+00  1.0000000000000000e+00  1.0000000000000000e+00  1.0000000000000000e+00  1.0000000000000000e+00  1.0000000000000000e+00  1.0000000000000000e+00  1.0000000000000000e+00  1.0000000000000000e+00  1.0000000000000000e+00  1.0000000000000000e+00  1.0000000000000000e+00  1.0000000000000000e+00  1.0000000000000000e+00  1.0000000000000000e+00  1.0000000000000000e+00  1.0000000000000000e+00  1.0000000000000000e+00  1.0000000000000000e+00  1.0000000000000000e+00  1.0000000000000000e+00  1.0000000000000000e+00  1.0000000000000000e+00  1.0000000000000000e+00  1.0000000000000000e+00  1.0000000000000000e+00  1.0000000000000000e+00  1.0000000000000000e+00  0.0000000000000000e+00  0.0000000000000000e+00  0.0000000000000000e+00  0.0000000000000000e+00  0.0000000000000000e+00  0.0000000000000000e+00  0.0000000000000000e+00  0.0000000000000000e+00  0.0000000000000000e+00  0.0000000000000000e+00  0.0000000000000000e+00  0.0000000000000000e+00  0.0000000000000000e+00  0.0000000000000000e+00  0.0000000000000000e+00  0.0000000000000000e+00  0.0000000000000000e+00  0.0000000000000000e+00  0.0000000000000000e+00  0.0000000000000000e+00  0.0000000000000000e+00  0.0000000000000000e+00  0.0000000000000000e+00  0.0000000000000000e+00  0.0000000000000000e+00  0.0000000000000000e+00  0.0000000000000000e+00  0.0000000000000000e+00  0.0000000000000000e+00  0.0000000000000000e+00  0.0000000000000000e+00  0.0000000000000000e+00  0.0000000000000000e+00  0.0000000000000000e+00  0.0000000000000000e+00  0.0000000000000000e+00  0.0000000000000000e+00  0.0000000000000000e+00  0.0000000000000000e+00  0.0000000000000000e+00  0.0000000000000000e+00  0.0000000000000000e+00  0.0000000000000000e+00  0.0000000000000000e+00  0.0000000000000000e+00  0.0000000000000000e+00  0.0000000000000000e+00  0.0000000000000000e+00  0.0000000000000000e+00  0.0000000000000000e+00  0.0000000000000000e+00  0.0000000000000000e+00  0.0000000000000000e+00  0.0000000000000000e+00  0.0000000000000000e+00  0.0000000000000000e+00  0.0000000000000000e+00  0.0000000000000000e+00  0.0000000000000000e+00  0.0000000000000000e+00  0.0000000000000000e+00  0.0000000000000000e+00  0.0000000000000000e+00  0.0000000000000000e+00  0.0000000000000000e+00  0.0000000000000000e+00  0.0000000000000000e+00  0.0000000000000000e+00  0.0000000000000000e+00  0.0000000000000000e+00  0.0000000000000000e+00  0.0000000000000000e+00  0.0000000000000000e+00  0.0000000000000000e+00  0.0000000000000000e+00  0.0000000000000000e+00  0.0000000000000000e+00  0.0000000000000000e+00  0.0000000000000000e+00  0.0000000000000000e+00  0.0000000000000000e+00  0.0000000000000000e+00  0.0000000000000000e+00  0.0000000000000000e+00  0.0000000000000000e+00  0.0000000000000000e+00  0.0000000000000000e+00  0.0000000000000000e+00  0.0000000000000000e+00  0.0000000000000000e+00  0.0000000000000000e+00  0.0000000000000000e+00  0.0000000000000000e+00  0.0000000000000000e+00  0.0000000000000000e+00  0.0000000000000000e+00  0.0000000000000000e+00  0.0000000000000000e+00  0.0000000000000000e+00  0.0000000000000000e+00  0.0000000000000000e+00  0.0000000000000000e+00  0.0000000000000000e+00  0.0000000000000000e+00  0.0000000000000000e+00  0.0000000000000000e+00  0.0000000000000000e+00  0.0000000000000000e+00  0.0000000000000000e+00  0.0000000000000000e+00  1.0000000000000000e+00  1.0000000000000000e+00  1.0000000000000000e+00  1.0000000000000000e+00  1.0000000000000000e+00  1.0000000000000000e+00  1.0000000000000000e+00  1.0000000000000000e+00  1.0000000000000000e+00  1.0000000000000000e+00  1.0000000000000000e+00  1.0000000000000000e+00  1.0000000000000000e+00  1.0000000000000000e+00  1.0000000000000000e+00  1.0000000000000000e+00  1.0000000000000000e+00  1.0000000000000000e+00  1.0000000000000000e+00  1.0000000000000000e+00  1.0000000000000000e+00  1.0000000000000000e+00  1.0000000000000000e+00  1.0000000000000000e+00  9.9999999999999989e-01  1.0000000000000000e+00  1.0000000000000000e+00  1.0000000000000000e+00  1.0000000000000000e+00  1.0000000000000000e+00  1.0000000000000000e+00  1.0000000000000000e+00  1.0000000000000000e+00  1.0000000000000000e+00  1.0000000000000000e+00  1.0000000000000000e+00  1.0000000000000000e+00  1.0000000000000000e+00  1.0000000000000000e+00  1.0000000000000000e+00  1.0000000000000000e+00  1.0000000000000000e+00  1.0000000000000000e+00  1.0000000000000000e+00  1.8972586856264134e-01  9.5151609027896744e-01  1.0000000000000000e+00  1.0000000000000000e+00  1.0000000000000000e+00  1.0000000000000000e+00  3.7308003149392338e-01  0.0000000000000000e+00  0.0000000000000000e+00  0.0000000000000000e+00  0.0000000000000000e+00  0.0000000000000000e+00  0.0000000000000000e+00  0.0000000000000000e+00  0.0000000000000000e+00  0.0000000000000000e+00  0.0000000000000000e+00  0.0000000000000000e+00  0.0000000000000000e+00  0.0000000000000000e+00  0.0000000000000000e+00  0.0000000000000000e+00  0.0000000000000000e+00  0.0000000000000000e+00  0.0000000000000000e+00  0.0000000000000000e+00  0.0000000000000000e+00  0.0000000000000000e+00  0.0000000000000000e+00  0.0000000000000000e+00  0.0000000000000000e+00  0.0000000000000000e+00  0.0000000000000000e+00  0.0000000000000000e+00  0.0000000000000000e+00  0.0000000000000000e+00  0.0000000000000000e+00  0.0000000000000000e+00  0.0000000000000000e+00  0.0000000000000000e+00  0.0000000000000000e+00  0.0000000000000000e+00  0.0000000000000000e+00  0.0000000000000000e+00  0.0000000000000000e+00  0.0000000000000000e+00  0.0000000000000000e+00  0.0000000000000000e+00  0.0000000000000000e+00  0.0000000000000000e+00  0.0000000000000000e+00  0.0000000000000000e+00  0.0000000000000000e+00  0.0000000000000000e+00  0.0000000000000000e+00  0.0000000000000000e+00  0.0000000000000000e+00  0.0000000000000000e+00  0.0000000000000000e+00  0.0000000000000000e+00  0.0000000000000000e+00  0.0000000000000000e+00  0.0000000000000000e+00  0.0000000000000000e+00  0.0000000000000000e+00  0.0000000000000000e+00  </DataArray> 
</PointData> 
</Piece>
</UnstructuredGrid>
</VTKFile>